<mxfile host="Electron" modified="2023-12-18T10:18:34.249Z" agent="Mozilla/5.0 (X11; Linux x86_64) AppleWebKit/537.36 (KHTML, like Gecko) draw.io/22.1.2 Chrome/114.0.5735.289 Electron/25.9.4 Safari/537.36" etag="1ZCJrU7a8ADW-6RdkOsi" version="22.1.2" type="device">
  <diagram name="Page-1" id="-LfwJh0KIj-WRIQfvNVz">
    <mxGraphModel dx="1040" dy="531" grid="1" gridSize="10" guides="1" tooltips="1" connect="1" arrows="1" fold="1" page="1" pageScale="1" pageWidth="1200" pageHeight="1920" math="0" shadow="0">
      <root>
        <mxCell id="0" />
        <mxCell id="1" parent="0" />
        <mxCell id="9XnzBuYD4rbQIn2mCrf1-4" value="" style="rounded=0;whiteSpace=wrap;html=1;" vertex="1" parent="1">
          <mxGeometry x="33" y="82" width="140" height="270" as="geometry" />
        </mxCell>
        <mxCell id="9XnzBuYD4rbQIn2mCrf1-5" value="User Table" style="rounded=0;whiteSpace=wrap;html=1;" vertex="1" parent="1">
          <mxGeometry x="33" y="82" width="140" height="35" as="geometry" />
        </mxCell>
        <mxCell id="9XnzBuYD4rbQIn2mCrf1-49" style="edgeStyle=orthogonalEdgeStyle;rounded=0;orthogonalLoop=1;jettySize=auto;html=1;exitX=1;exitY=0.5;exitDx=0;exitDy=0;elbow=vertical;entryX=0;entryY=0.5;entryDx=0;entryDy=0;" edge="1" parent="1" source="9XnzBuYD4rbQIn2mCrf1-6">
          <mxGeometry relative="1" as="geometry">
            <mxPoint x="270" y="30" as="targetPoint" />
          </mxGeometry>
        </mxCell>
        <mxCell id="9XnzBuYD4rbQIn2mCrf1-6" value="user_id" style="rounded=0;whiteSpace=wrap;html=1;" vertex="1" parent="1">
          <mxGeometry x="33" y="117" width="140" height="60" as="geometry" />
        </mxCell>
        <mxCell id="9XnzBuYD4rbQIn2mCrf1-7" value="Name" style="rounded=0;whiteSpace=wrap;html=1;" vertex="1" parent="1">
          <mxGeometry x="33" y="177" width="140" height="60" as="geometry" />
        </mxCell>
        <mxCell id="9XnzBuYD4rbQIn2mCrf1-8" value="email" style="rounded=0;whiteSpace=wrap;html=1;" vertex="1" parent="1">
          <mxGeometry x="33" y="237" width="140" height="60" as="geometry" />
        </mxCell>
        <mxCell id="9XnzBuYD4rbQIn2mCrf1-10" value="timestamp" style="rounded=0;whiteSpace=wrap;html=1;" vertex="1" parent="1">
          <mxGeometry x="33" y="297" width="140" height="60" as="geometry" />
        </mxCell>
        <mxCell id="9XnzBuYD4rbQIn2mCrf1-11" style="edgeStyle=orthogonalEdgeStyle;rounded=0;orthogonalLoop=1;jettySize=auto;html=1;exitX=0.5;exitY=1;exitDx=0;exitDy=0;" edge="1" parent="1" source="9XnzBuYD4rbQIn2mCrf1-4" target="9XnzBuYD4rbQIn2mCrf1-4">
          <mxGeometry relative="1" as="geometry" />
        </mxCell>
        <mxCell id="9XnzBuYD4rbQIn2mCrf1-12" value="Transaction Table" style="rounded=0;whiteSpace=wrap;html=1;" vertex="1" parent="1">
          <mxGeometry x="280" y="82" width="170" height="30" as="geometry" />
        </mxCell>
        <mxCell id="9XnzBuYD4rbQIn2mCrf1-13" value="transaction_id" style="rounded=0;whiteSpace=wrap;html=1;" vertex="1" parent="1">
          <mxGeometry x="280" y="112" width="170" height="60" as="geometry" />
        </mxCell>
        <mxCell id="9XnzBuYD4rbQIn2mCrf1-14" value="user_id" style="rounded=0;whiteSpace=wrap;html=1;" vertex="1" parent="1">
          <mxGeometry x="280" y="172" width="170" height="60" as="geometry" />
        </mxCell>
        <mxCell id="9XnzBuYD4rbQIn2mCrf1-15" value="poseoff_status" style="rounded=0;whiteSpace=wrap;html=1;" vertex="1" parent="1">
          <mxGeometry x="280" y="232" width="170" height="60" as="geometry" />
        </mxCell>
        <mxCell id="9XnzBuYD4rbQIn2mCrf1-16" value="tidytray_status" style="rounded=0;whiteSpace=wrap;html=1;" vertex="1" parent="1">
          <mxGeometry x="280" y="292" width="170" height="60" as="geometry" />
        </mxCell>
        <mxCell id="9XnzBuYD4rbQIn2mCrf1-17" value="status" style="rounded=0;whiteSpace=wrap;html=1;" vertex="1" parent="1">
          <mxGeometry x="280" y="352" width="170" height="60" as="geometry" />
        </mxCell>
        <mxCell id="9XnzBuYD4rbQIn2mCrf1-18" value="score" style="rounded=0;whiteSpace=wrap;html=1;" vertex="1" parent="1">
          <mxGeometry x="280" y="412" width="170" height="60" as="geometry" />
        </mxCell>
        <mxCell id="9XnzBuYD4rbQIn2mCrf1-19" value="timestamp" style="rounded=0;whiteSpace=wrap;html=1;" vertex="1" parent="1">
          <mxGeometry x="280" y="472" width="170" height="60" as="geometry" />
        </mxCell>
        <mxCell id="9XnzBuYD4rbQIn2mCrf1-20" value="Score Detail Table" style="rounded=0;whiteSpace=wrap;html=1;" vertex="1" parent="1">
          <mxGeometry x="520" y="82" width="140" height="28" as="geometry" />
        </mxCell>
        <mxCell id="9XnzBuYD4rbQIn2mCrf1-21" value="transaction_id" style="rounded=0;whiteSpace=wrap;html=1;" vertex="1" parent="1">
          <mxGeometry x="520" y="110" width="140" height="60" as="geometry" />
        </mxCell>
        <mxCell id="9XnzBuYD4rbQIn2mCrf1-22" value="scores" style="rounded=0;whiteSpace=wrap;html=1;" vertex="1" parent="1">
          <mxGeometry x="520" y="170" width="140" height="60" as="geometry" />
        </mxCell>
        <mxCell id="9XnzBuYD4rbQIn2mCrf1-23" value="pose" style="rounded=0;whiteSpace=wrap;html=1;" vertex="1" parent="1">
          <mxGeometry x="520" y="230" width="140" height="60" as="geometry" />
        </mxCell>
        <mxCell id="9XnzBuYD4rbQIn2mCrf1-24" value="img_link" style="rounded=0;whiteSpace=wrap;html=1;" vertex="1" parent="1">
          <mxGeometry x="520" y="290" width="140" height="60" as="geometry" />
        </mxCell>
        <mxCell id="9XnzBuYD4rbQIn2mCrf1-25" value="timestamp" style="rounded=0;whiteSpace=wrap;html=1;" vertex="1" parent="1">
          <mxGeometry x="520" y="350" width="140" height="60" as="geometry" />
        </mxCell>
        <mxCell id="9XnzBuYD4rbQIn2mCrf1-26" value="" style="rounded=0;whiteSpace=wrap;html=1;" vertex="1" parent="1">
          <mxGeometry x="781" y="141" width="220" height="390" as="geometry" />
        </mxCell>
        <mxCell id="9XnzBuYD4rbQIn2mCrf1-27" value="API&#39;s" style="rounded=0;whiteSpace=wrap;html=1;" vertex="1" parent="1">
          <mxGeometry x="781" y="81" width="220" height="60" as="geometry" />
        </mxCell>
        <mxCell id="9XnzBuYD4rbQIn2mCrf1-28" value="Create User" style="rounded=0;whiteSpace=wrap;html=1;" vertex="1" parent="1">
          <mxGeometry x="821" y="169" width="160" height="60" as="geometry" />
        </mxCell>
        <mxCell id="9XnzBuYD4rbQIn2mCrf1-29" value="Search User" style="rounded=0;whiteSpace=wrap;html=1;" vertex="1" parent="1">
          <mxGeometry x="821" y="246" width="160" height="60" as="geometry" />
        </mxCell>
        <mxCell id="9XnzBuYD4rbQIn2mCrf1-73" style="edgeStyle=orthogonalEdgeStyle;rounded=0;orthogonalLoop=1;jettySize=auto;html=1;elbow=vertical;" edge="1" parent="1" source="9XnzBuYD4rbQIn2mCrf1-30">
          <mxGeometry relative="1" as="geometry">
            <mxPoint x="700" y="490" as="targetPoint" />
          </mxGeometry>
        </mxCell>
        <mxCell id="9XnzBuYD4rbQIn2mCrf1-30" value="Wait list" style="rounded=0;whiteSpace=wrap;html=1;" vertex="1" parent="1">
          <mxGeometry x="821" y="329" width="160" height="60" as="geometry" />
        </mxCell>
        <mxCell id="9XnzBuYD4rbQIn2mCrf1-36" value="Recent Player" style="rounded=0;whiteSpace=wrap;html=1;" vertex="1" parent="1">
          <mxGeometry x="821" y="401" width="160" height="60" as="geometry" />
        </mxCell>
        <mxCell id="9XnzBuYD4rbQIn2mCrf1-75" style="edgeStyle=orthogonalEdgeStyle;rounded=0;orthogonalLoop=1;jettySize=auto;html=1;exitX=0;exitY=0.5;exitDx=0;exitDy=0;elbow=vertical;" edge="1" parent="1" source="9XnzBuYD4rbQIn2mCrf1-38">
          <mxGeometry relative="1" as="geometry">
            <mxPoint x="730" y="310" as="targetPoint" />
          </mxGeometry>
        </mxCell>
        <mxCell id="9XnzBuYD4rbQIn2mCrf1-38" value="Show Pictures" style="rounded=0;whiteSpace=wrap;html=1;" vertex="1" parent="1">
          <mxGeometry x="821" y="471" width="160" height="60" as="geometry" />
        </mxCell>
        <mxCell id="9XnzBuYD4rbQIn2mCrf1-51" style="edgeStyle=orthogonalEdgeStyle;rounded=0;orthogonalLoop=1;jettySize=auto;html=1;exitX=1;exitY=0.5;exitDx=0;exitDy=0;elbow=vertical;" edge="1" parent="1">
          <mxGeometry relative="1" as="geometry">
            <mxPoint x="730" y="280" as="targetPoint" />
            <mxPoint x="350" y="30" as="sourcePoint" />
          </mxGeometry>
        </mxCell>
        <mxCell id="9XnzBuYD4rbQIn2mCrf1-55" style="edgeStyle=orthogonalEdgeStyle;rounded=0;orthogonalLoop=1;jettySize=auto;html=1;exitX=0;exitY=0.5;exitDx=0;exitDy=0;elbow=vertical;" edge="1" parent="1">
          <mxGeometry relative="1" as="geometry">
            <mxPoint x="440" y="30" as="targetPoint" />
            <mxPoint x="270" y="30" as="sourcePoint" />
          </mxGeometry>
        </mxCell>
        <mxCell id="9XnzBuYD4rbQIn2mCrf1-57" style="edgeStyle=orthogonalEdgeStyle;rounded=0;orthogonalLoop=1;jettySize=auto;html=1;exitX=1;exitY=0.5;exitDx=0;exitDy=0;entryX=0;entryY=0.5;entryDx=0;entryDy=0;elbow=vertical;" edge="1" parent="1">
          <mxGeometry relative="1" as="geometry">
            <mxPoint x="730" y="279" as="sourcePoint" />
            <mxPoint x="821" y="279" as="targetPoint" />
          </mxGeometry>
        </mxCell>
        <mxCell id="9XnzBuYD4rbQIn2mCrf1-67" value="" style="endArrow=none;html=1;rounded=0;elbow=vertical;" edge="1" parent="1">
          <mxGeometry width="50" height="50" relative="1" as="geometry">
            <mxPoint x="220" y="50" as="sourcePoint" />
            <mxPoint x="710" y="51" as="targetPoint" />
          </mxGeometry>
        </mxCell>
        <mxCell id="9XnzBuYD4rbQIn2mCrf1-68" value="" style="endArrow=none;html=1;rounded=0;elbow=vertical;" edge="1" parent="1">
          <mxGeometry width="50" height="50" relative="1" as="geometry">
            <mxPoint x="220" y="210" as="sourcePoint" />
            <mxPoint x="220" y="50" as="targetPoint" />
          </mxGeometry>
        </mxCell>
        <mxCell id="9XnzBuYD4rbQIn2mCrf1-69" value="" style="endArrow=classic;html=1;rounded=0;elbow=vertical;exitX=1;exitY=0.5;exitDx=0;exitDy=0;" edge="1" parent="1">
          <mxGeometry width="50" height="50" relative="1" as="geometry">
            <mxPoint x="219" y="209" as="sourcePoint" />
            <mxPoint x="170" y="207" as="targetPoint" />
          </mxGeometry>
        </mxCell>
        <mxCell id="9XnzBuYD4rbQIn2mCrf1-71" value="" style="endArrow=none;html=1;rounded=0;elbow=vertical;" edge="1" parent="1">
          <mxGeometry width="50" height="50" relative="1" as="geometry">
            <mxPoint x="710" y="200" as="sourcePoint" />
            <mxPoint x="710" y="50" as="targetPoint" />
          </mxGeometry>
        </mxCell>
        <mxCell id="9XnzBuYD4rbQIn2mCrf1-72" value="" style="endArrow=none;html=1;rounded=0;elbow=vertical;entryX=0;entryY=0.5;entryDx=0;entryDy=0;" edge="1" parent="1" target="9XnzBuYD4rbQIn2mCrf1-28">
          <mxGeometry width="50" height="50" relative="1" as="geometry">
            <mxPoint x="710" y="200" as="sourcePoint" />
            <mxPoint x="762" y="179" as="targetPoint" />
          </mxGeometry>
        </mxCell>
        <mxCell id="9XnzBuYD4rbQIn2mCrf1-74" value="" style="endArrow=none;html=1;rounded=0;elbow=vertical;exitX=1;exitY=0.25;exitDx=0;exitDy=0;" edge="1" parent="1">
          <mxGeometry width="50" height="50" relative="1" as="geometry">
            <mxPoint x="450" y="490" as="sourcePoint" />
            <mxPoint x="700" y="490" as="targetPoint" />
          </mxGeometry>
        </mxCell>
        <mxCell id="9XnzBuYD4rbQIn2mCrf1-76" value="" style="endArrow=none;html=1;rounded=0;elbow=vertical;exitX=1;exitY=0.5;exitDx=0;exitDy=0;" edge="1" parent="1">
          <mxGeometry width="50" height="50" relative="1" as="geometry">
            <mxPoint x="660" y="311" as="sourcePoint" />
            <mxPoint x="730" y="311" as="targetPoint" />
          </mxGeometry>
        </mxCell>
      </root>
    </mxGraphModel>
  </diagram>
</mxfile>
